Name,Sex,Age,Equipment,Division,BodyweightKg,WeightClassKg,Best3SquatKg,Best3BenchKg,Best3DeadliftKg,TotalKg,BirthDate,Event,Place
Gabriella Lauria,F,21,Wraps,Amateur Juniors 20-23,56.7,60,81.65,43.09,83.91,208.65,2001-06-18,SBD,1
Maria Pappa,F,38,Wraps,Pro Open,48.99,52,136.08,70.31,167.83,374.21,1984-07-19,SBD,1
Brianna Kelly,F,24,Wraps,Amateur Open,51.26,52,113.4,58.97,122.47,294.84,1998-06-03,SBD,1
Jen Hazzard,F,37,Wraps,Pro Open,57.15,60,195.95,108.86,240.4,545.22,1985-06-06,SBD,1
Jenna Skiba,F,38,Wraps,Amateur Submasters 33-39,74.75,75,138.35,68.04,138.35,344.73,1984-06-06,SBD,1
Stephanie Bucari,F,36,Wraps,Pro Submasters 33-39,77.56,82.5,190.51,115.67,183.7,489.88,1986-04-23,SBD,1
Seta Sevulyan,F,42,Single-ply,Pro Masters 40-44,67.13,67.5,213.19,115.67,190.51,519.36,1981-02-10,SBD,1
Seta Sevulyan,F,42,Single-ply,Pro Open,67.13,67.5,213.19,115.67,190.51,519.36,1981-02-10,SBD,1
Cayleigh Scia,F,24,Multi-ply,Amateur Open,81.65,82.5,197.31,102.06,165.56,464.93,1998-12-03,SBD,1
Michelle Gironda,F,39,Multi-ply,Amateur Open,96.16,100,272.16,127.01,172.37,571.53,1983-11-30,SBD,1
Michelle Gironda,F,39,Multi-ply,Amateur Submasters 33-39,96.16,100,272.16,127.01,172.37,571.53,1983-11-30,SBD,1
Cassidy Tomas,F,20,Raw,Amateur Juniors 20-23,88.9,90,,58.97,102.06,161.03,2002-05-03,BD,1
Blake Tobin,F,30,Raw,Pro Open,55.11,56,,133.81,215.46,349.27,1992-04-24,BD,1
Jessica Goldstein,F,32,Multi-ply,Amateur Open,44.23,48,,86.18,,86.18,1990-07-05,B,1
Joseph Lamberson,M,44,Wraps,Amateur Masters 40-44,97.52,100,192.78,154.22,213.19,560.19,1979-03-22,SBD,1
Brady Martin,M,27,Wraps,Amateur Open,66.22,67.5,199.58,140.61,204.12,544.31,1995-05-26,SBD,1
Collin McMahon,M,25,Wraps,Amateur Open,99.34,100,238.14,117.93,244.94,601.01,1997-07-28,SBD,1
Karan Gupta,M,23,Wraps,Amateur Open,123.83,125,238.14,154.22,294.84,687.19,1999-12-17,SBD,1
Jake Paniwozik,M,14,Wraps,Amateur Teen 13-15,47.4,52,120.2,72.57,142.88,335.66,2008-09-05,SBD,1
Emanuel Ospino,M,14,Wraps,Amateur Teen 13-15,69.63,75,115.67,79.38,136.08,331.12,2008-06-06,SBD,1
Joey Lamberson,M,16,Wraps,Amateur Teen 16-17,59.65,60,102.06,74.84,129.27,306.17,2007-03-28,SBD,1
Lucas Cabral,M,18,Wraps,Amateur Teen 18-19,82.1,82.5,183.7,115.67,183.7,483.08,2004-06-03,SBD,1
Rob Weber,M,44,Unlimited,Pro Masters 40-44,107.95,110,433.18,206.38,312.98,952.54,1979-02-14,SBD,1
Derrick Benjamin,M,47,Unlimited,Pro Masters 45-49,102.97,110,362.87,263.08,301.64,927.6,1975-12-26,SBD,1
Nick Surdis,M,50,Unlimited,Pro Masters 50-54,122.7,125,290.3,249.48,235.87,775.64,1972-06-01,SBD,1
Isaiah Gordon,M,24,Unlimited,Pro Open,81.42,82.5,392.36,306.17,301.64,1000.17,1998-04-23,SBD,1
Robert Paxson,M,27,Unlimited,Pro Open,78.47,82.5,385.55,310.71,269.89,966.15,1995-05-29,SBD,2
Mason Cooper,M,24,Unlimited,Pro Open,87.32,90,317.51,306.17,265.35,889.04,1998-12-21,SBD,1
Rob Weber,M,44,Unlimited,Pro Open,107.95,110,433.18,206.38,312.98,952.54,1979-02-14,SBD,1
Jack Massullo,M,35,Unlimited,Pro Open,107.05,110,374.21,292.57,278.96,945.74,1988-02-19,SBD,2
Logan Shady,M,25,Unlimited,Pro Open,115.21,125,387.82,272.16,294.84,954.81,1997-11-01,SBD,1
Jeremy Yapp,M,33,Unlimited,Pro Open,132.9,140,455.86,328.85,288.03,1072.75,1990-02-24,SBD,1
Tyler Reese,M,27,Unlimited,Amateur Open,130.63,140,433.18,217.72,274.42,925.33,1996-03-24,SBD,1
John Distasio,M,12,Unlimited,Amateur Teen 13,58.97,60,136.08,54.43,104.33,294.84,2010-12-08,SBD,1
Jack Massullo,M,35,Unlimited,Pro Submasters 33-39,107.05,110,374.21,292.57,278.96,945.74,1988-02-19,SBD,1
Rich Putnam,M,45,Unlimited,Pro Masters 45-49,133.36,140,,453.59,,453.59,1977-06-07,B,1
Steven R Dussault,M,63,Unlimited,Pro Masters 60-64,79.38,82.5,,272.16,,272.16,1960-03-18,B,1
Dillon Hinkle,M,28,Unlimited,Pro Open,81.19,82.5,,299.37,,299.37,1994-08-20,B,1
James Adegbite,M,28,Unlimited,Amateur Open,81.19,82.5,,,349.27,349.27,1994-11-13,D,1
