Place,Name,WeightClassKg,Sex,Division,BirthDate,BirthYear,Team,BodyweightKg,Squat1Kg,Squat2Kg,Squat3Kg,Best3SquatKg,Bench1Kg,Bench2Kg,Bench3Kg,Best3BenchKg,Deadlift1Kg,Deadlift2Kg,Deadlift3Kg,Best3DeadliftKg,TotalKg,Event,Equipment
1,Maria Quirante Perez,43,F,SBJ,,2006,MALPT,42.6,52.5,57.5,61,61,-30,32.5,36,36,75,85,93,93,190,SBD,Raw
1,Lucia Bernabeu Gomez,52,F,SBJ,,2005,SPARTA,50.06,87.5,95,-100.5,95,62.5,-70,-70,62.5,105,115,120,120,277.5,SBD,Raw
2,Lucia Marco Diaz,52,F,SBJ,,2004,FVLFR,50.4,-82.5,-82.5,82.5,82.5,45,50,52.5,52.5,115,125,132.5,132.5,267.5,SBD,Raw
DQ,Miriam Gomez Perez,57,F,SBJ,,2006,ANDAL,54.48,-92.5,-92.5,-100,,55,-60,,55,97.5,105,-112.5,105,,SBD,Raw
1,Alba Domingo,63,F,SBJ,,2007,FEDCAT,59.68,110,-115,-115,110,67.5,-71,-72.5,67.5,145,150,-155,150,327.5,SBD,Raw
2,Lucia Piñeiro Fernandez,63,F,SBJ,,2004,FENIX,62.82,115.5,122.5,125,125,62.5,70.5,75,75,120,127.5,-132.5,127.5,327.5,SBD,Raw
3,Thatiane Santana Santos,63,F,SBJ,,2004,PTRSA,61.82,112.5,120,123,123,50,55,-57.5,55,127.5,137.5,145,145,323,SBD,Raw
4,Gabriela Espinosa Parreño,63,F,SBJ,,2004,IRONS,61,-102.5,107.5,112.5,112.5,55,57.5,62.5,62.5,125,135,-150,135,310,SBD,Raw
5,Mireia Albaladejo Garcia,63,F,SBJ,,2005,MYR,61.12,95,100,-105,100,42.5,47.5,50,50,132.5,-142.5,142.5,142.5,292.5,SBD,Raw
6,Elvira Garcia De La Fuente,63,F,SBJ,,2004,FIA,60.84,-100,100,-105,100,42.5,47.5,50,50,130,-137.5,137.5,137.5,287.5,SBD,Raw
7,Marina Carabot Tosar,63,F,SBJ,,2005,DTP,58.66,85,92.5,97.5,97.5,50,55,60,60,115,122.5,125,125,282.5,SBD,Raw
1,Alicia Zambrano Gruart,69,F,SBJ,,2004,PBAR,68.08,110,122.5,130.5,130.5,62.5,67.5,-70,67.5,145,-155,157.5,157.5,355.5,SBD,Raw
2,Andrea Morillas Tabernero,69,F,SBJ,,2004,LIFTAM,66.48,105,112.5,-117.5,112.5,80,85,90.5,90.5,142.5,150,-155,150,353,SBD,Raw
3,Irene Ramirez Renau,69,F,SBJ,,2004,RSLIF,67.46,85,95,100,100,42.5,47.5,-52.5,47.5,120,132.5,142.5,142.5,290,SBD,Raw
4,Sara Garcia Martin,69,F,SBJ,,2005,INDAR,63.42,85,-92.5,95,95,37.5,-42.5,-42.5,37.5,90,97.5,102.5,102.5,235,SBD,Raw
1,Alejandra Vidal Castiñeiras,76,F,SBJ,,2004,EINTE,70.02,125,135,140,140,57.5,60,62.5,62.5,150,-160,160,160,362.5,SBD,Raw
2,Kamelia Peneva Andonova,76,F,SBJ,,2008,AFA,75.4,-122.5,130,135,135,57.5,60,-62.5,60,130,-137.5,142.5,142.5,337.5,SBD,Raw
3,Martina Rodriguez Vicente,76,F,SBJ,,2005,SIDER,72.44,100,105,110,110,52.5,57.5,62.5,62.5,120,130,142.5,142.5,315,SBD,Raw
1,Laia Vilardell Castañé,43,F,JUN,,2003,MOON,40.4,65,70,75,75,30,35,-37,35,95,100,105,105,215,SBD,Raw
1,Ruxandra Moldovan Simina,47,F,JUN,,1999,EINTE,45.9,92.5,97.5,-98,97.5,55,-58,-58,55,-120,122.5,-125.5,122.5,275,SBD,Raw
2,Laura Cebada Almagro,47,F,JUN,,1999,FTOLE,46.84,80,82.5,85,85,52.5,55,57.5,57.5,110,-122.5,-125,110,252.5,SBD,Raw
3,Clara Sanchez Asensio,47,F,JUN,,1999,ALFA,45.74,92.5,-98,-98.5,92.5,42.5,45,-47.5,45,-100,100,,100,237.5,SBD,Raw
1,Anjara Heredia Duran,52,F,JUN,,1999,IRONT,51.44,-105,112.5,117.5,117.5,62.5,67.5,70,70,135,145,150,150,337.5,SBD,Raw
2,Estefania Torres Ortiz,52,F,JUN,,1999,AFA,51.18,117.5,-122.5,-125,117.5,62.5,67.5,-70,67.5,132.5,137.5,142.5,142.5,327.5,SBD,Raw
3,Andrea Navarro Flores,52,F,JUN,,2000,GRDA,51.62,112.5,120,-125.5,120,62.5,65,67.5,67.5,140,-152.5,-152.5,140,327.5,SBD,Raw
4,Sonia Amoros Bru,52,F,JUN,,2000,AFA,51.26,100,-107.5,107.5,107.5,47.5,55,60,60,135,147.5,157.5,157.5,325,SBD,Raw
5,Sofía Garcia Galvan,52,F,JUN,,1999,FGUAN,51.68,95,102.5,-105,102.5,65,-70,70,70,132.5,140,145,145,317.5,SBD,Raw
6,Brenda Galante Muñoz,52,F,JUN,,2003,FEDCAT,50.78,-80,80,90,90,45,50,-52.5,50,120,127.5,132.5,132.5,272.5,SBD,Raw
7,Eva Alemany Modol,52,F,JUN,,2002,FEDCAT,50.26,80,-90,-90,80,45,47.5,-50,47.5,112.5,120,125,125,252.5,SBD,Raw
8,Gema María Ramos Reyes,52,F,JUN,,2000,PJAEN,51.58,77.5,82.5,-90,82.5,52.5,-55,-57.5,52.5,95,100,-107.5,100,235,SBD,Raw
DQ,Anna Higa Flores,52,F,JUN,,2000,PBAR,51.38,75,77.5,-80,77.5,-42.5,-42.5,-42.5,,-110,,,,,SBD,Raw
1,Marina Lostau De La Fuente,57,F,JUN,,1999,VALKY,56.12,125,130,-135,130,65,70,72.5,72.5,155,165,175,175,377.5,SBD,Raw
2,Lara Escosura Flores,57,F,JUN,,2001,FEDCAT,55.94,-125,125,132.5,132.5,70,-77.5,77.5,77.5,145,-150,-150,145,355,SBD,Raw
3,Ines Vallejo Garcia,57,F,JUN,,2000,FNORT,56.2,117.5,125,-130,125,70,77.5,-82.5,77.5,137.5,145,152.5,152.5,355,SBD,Raw
4,Paula Alonso Vazquez,57,F,JUN,,2001,FENIX,56.84,120,125,-130,125,70,72.5,75,75,145,152.5,-157.5,152.5,352.5,SBD,Raw
5,Manuela Fernandez Mijes,57,F,JUN,,2001,ELITP,56.64,122.5,130,-132.5,130,55,60,-62.5,60,135,142.5,147.5,147.5,337.5,SBD,Raw
6,Erika Valverde Vizcaíno,57,F,JUN,,2001,PBAR,55.58,117.5,122.5,-127.5,122.5,65,-70,70,70,130,140,-145,140,332.5,SBD,Raw
7,Elisa Simó Gaztambide,57,F,JUN,,2000,PNAVAR,56.5,-105,105,110,110,65,-70,-70,65,145,152.5,-155,152.5,327.5,SBD,Raw
8,Raquel Galán Mínguez,57,F,JUN,,1999,MOON,55.46,100,107.5,112.5,112.5,50,55,57.5,57.5,135,145,150,150,320,SBD,Raw
9,Marina Penalva Abellan,57,F,JUN,,2000,AFA,56.2,107.5,-112.5,115,115,60,62.5,65,65,127.5,135,140,140,320,SBD,Raw
10,Carmen Peña Cabezas,57,F,JUN,,2000,BURGOS,52.64,100,105,110,110,57.5,62.5,65,65,117.5,125,135,135,310,SBD,Raw
11,Ana Isabel Rodriquez Ibañez,57,F,JUN,,1999,FIA,56.8,100,105,-107.5,105,62.5,-65,65,65,130,140,-147.5,140,310,SBD,Raw
12,Clara Patau Fabres,57,F,JUN,,2001,FEDCAT,52.6,100,105,110,110,-52.5,57.5,-60,57.5,117.5,125,132.5,132.5,300,SBD,Raw
13,Montserrat Vazquez Molina,57,F,JUN,,2001,IRONS,56.94,92.5,97.5,102.5,102.5,70,72.5,75,75,112.5,122.5,-127.5,122.5,300,SBD,Raw
14,Maria José Gámez Acosta,57,F,JUN,,1999,PJAEN,54.58,95,102.5,-105,102.5,52.5,57.5,60,60,117.5,125,-130,125,287.5,SBD,Raw
15,Zariha Chivato Santos,57,F,JUN,,2000,DTP,56.24,95,100,-105,100,55,-57.5,-57.5,55,120,130,-140,130,285,SBD,Raw
16,Aída Martín Mayor,57,F,JUN,,2002,EXIT28,53.28,92.5,100,-105,100,-52.5,52.5,55,55,112.5,122.5,-127.5,122.5,277.5,SBD,Raw
17,Natalia Martínez Marín,57,F,JUN,,1999,ALFA,55.52,80,90,-95,90,52.5,57.5,60,60,105,115,122.5,122.5,272.5,SBD,Raw
18,Claudia Lozano Pedrajas,57,F,JUN,,2001,PBAR,55.12,75,82.5,90,90,40,-45,-50,40,100,105,112.5,112.5,242.5,SBD,Raw
DQ,Lucia Coballes Martinez,57,F,JUN,,2001,GALI,57,87.5,-95,95,95,-50,-50,-50,,100,-107.5,107.5,107.5,,SBD,Raw
1,Elsa Prandi Merino,63,F,JUN,,2002,ERALLO,61,127.5,135,-140,135,92.5,97.5,-100,97.5,147.5,157.5,-170,157.5,390,SBD,Raw
2,Dana Iziz Otero,63,F,JUN,,2000,PNAVAR,61.6,127.5,135,-149,135,70,75,77.5,77.5,142.5,152.5,160,160,372.5,SBD,Raw
3,Jone Maguregi Rodriguez,63,F,JUN,,1999,INDAR,60.8,120,125,130,130,82.5,85,-87.5,85,145,-152.5,-160,145,360,SBD,Raw
4,Belén Roig León,63,F,JUN,,2002,ARBA,62.7,130,137.5,142.5,142.5,-55,55,-57.5,55,142.5,-152.5,152.5,152.5,350,SBD,Raw
5,Naiara Manso Vergel,63,F,JUN,,2001,ANDAL,62,125,-130,130,130,55,57.5,60,60,142.5,150,-155,150,340,SBD,Raw
6,María Márquez García,63,F,JUN,,2001,PBAR,61.92,110,117.5,120,120,60,-62.5,62.5,62.5,140,147.5,150,150,332.5,SBD,Raw
7,Elena Perez Alcalde,63,F,JUN,,2001,FENIX,59.3,102.5,110,115,115,62.5,67.5,72.5,72.5,125,135,142.5,142.5,330,SBD,Raw
8,Irene Mitjavila Casals,63,F,JUN,,2002,MOON,60.68,115,120,-125,120,57.5,60,-65,60,135,142.5,-145,142.5,322.5,SBD,Raw
9,Renata Lua Kutzwor,63,F,JUN,,2003,AGSTR,60.86,-117.5,117.5,-125,117.5,45,50,-55,50,-132.5,140,145,145,312.5,SBD,Raw
10,Virginia Martin Cenit,63,F,JUN,,2000,PNAVAR,61.54,110,117.5,-120,117.5,70,-75,-75,70,125,-130,-137.5,125,312.5,SBD,Raw
11,Ainhoa Casanovas Martín,63,F,JUN,,2003,GOIER,61.46,95,100,-105,100,57.5,60,-62.5,60,130,135,140,140,300,SBD,Raw
12,Brenda Jul Hidalgo,63,F,JUN,,2002,FNORT,60.32,95,100,-105,100,50,55,-60,55,-142.5,142.5,-155,142.5,297.5,SBD,Raw
13,Iva Petrova Ivanova,63,F,JUN,,2000,ATPB,61.86,-90,90,100,100,52.5,-57.5,57.5,57.5,130,140,-147.5,140,297.5,SBD,Raw
14,Aida González Montes,63,F,JUN,,1999,ASTUR,61.54,90,95,102.5,102.5,60,-62.5,-62.5,60,115,125,-132.5,125,287.5,SBD,Raw
15,Julia Calvo Gonzalez,63,F,JUN,,2002,MOON,59.16,92.5,100,-105,100,47.5,52.5,-55,52.5,115,125,-132.5,125,277.5,SBD,Raw
16,Elena Verdugo Maqueda,63,F,JUN,,2000,FGUAN,61.06,95,100,107.5,107.5,50,52.5,55,55,115,-125,-125,115,277.5,SBD,Raw
NS,María Begoña Martín Monroy,69,F,JUN,,2000,PCAST,,,,,,,,,,,,,,,SBD,Raw
1,Julia Martinez Soría,69,F,JUN,,1999,ERALLO,67.5,140,145,147.5,147.5,82.5,87.5,-90,87.5,157.5,167.5,172.5,172.5,407.5,SBD,Raw
2,Alicia Sorlí Ballester,69,F,JUN,,2002,AFA,66.18,135,145,152.5,152.5,65,70,72.5,72.5,160,170,177.5,177.5,402.5,SBD,Raw
3,María Teresa Molina Fresno,69,F,JUN,,2001,PNAVAR,66.96,130,-137.5,140,140,72.5,77.5,80,80,160,170,172.5,172.5,392.5,SBD,Raw
4,Ainhoa Loidi Malumbres,69,F,JUN,,2003,PNAVAR,66.3,125,132.5,137.5,137.5,65,72.5,-75,72.5,162.5,172.5,-182.5,172.5,382.5,SBD,Raw
5,Janina Venäläinen Sira,69,F,JUN,,2000,LIFTAM,68.88,130,137.5,142.5,142.5,72.5,77.5,-80,77.5,145,155,-160,155,375,SBD,Raw
6,Balma Vidal Belles,69,F,JUN,,2001,FIA,68.92,120,-130,132.5,132.5,62.5,-67.5,67.5,67.5,-160,160,-175,160,360,SBD,Raw
7,Ines Tremiño Guillen,69,F,JUN,,2000,AFA,67.32,122.5,130,135,135,57.5,65,-70,65,142.5,150,157.5,157.5,357.5,SBD,Raw
8,Cristina Rego Diaz,69,F,JUN,,2001,FENIX,68.84,112.5,120,125,125,-70,70,-75,70,130,142.5,150,150,345,SBD,Raw
9,Valeria Ocaña López,69,F,JUN,,2000,AGSTR,66.56,-107.5,117.5,-127.5,117.5,50,55,-60,55,145,157.5,167.5,167.5,340,SBD,Raw
10,Maddalen Gomez Garcia,69,F,JUN,,2001,INDAR,63.44,107.5,115,120,120,67.5,-72.5,72.5,72.5,135,142.5,-150,142.5,335,SBD,Raw
11,Ana Ramirez Osuna,69,F,JUN,,2000,FNAZ,67.08,115,117.5,-120,117.5,47.5,50,-52.5,50,142.5,152.5,160,160,327.5,SBD,Raw
12,Erika Jimenez Tajuelo,69,F,JUN,,2000,FTOLE,65.72,-105,105,107.5,107.5,-55,55,-60,55,140,147.5,160,160,322.5,SBD,Raw
13,Nadia Erenas Mateos,69,F,JUN,,2001,SOYPW,65.68,-110,112.5,117.5,117.5,50,55,-60,55,125,135,140,140,312.5,SBD,Raw
14,Belén Monedero Sanz,69,F,JUN,,2000,INDAR,68.44,97.5,-105,107.5,107.5,57.5,65,-70,65,125,132.5,140,140,312.5,SBD,Raw
15,María Martínez Jiménez,69,F,JUN,,1999,MOON,66.24,97.5,-102.5,102.5,102.5,57.5,60,65,65,127.5,137.5,142.5,142.5,310,SBD,Raw
16,Sara Hueltes Palacios,69,F,JUN,,1999,PJAEN,67.18,92.5,97.5,102.5,102.5,42.5,47.5,52.5,52.5,140,150,155,155,310,SBD,Raw
17,Lucia Castellano Funes,69,F,JUN,,1999,FIA,67.58,95,97.5,-102.5,97.5,57.5,62.5,67.5,67.5,132.5,140,145,145,310,SBD,Raw
18,Amaya Olcoz Ituraiz,69,F,JUN,,2002,BRSMAD,69,110,-120,-120,110,60,65,-67.5,65,130,-135,,130,305,SBD,Raw
DQ,Beatriz Fernandez Perez,69,F,JUN,,2002,AGSTR,68.38,142.5,-152.5,-152.5,142.5,-90,-90,,,150,160,-172.5,160,,SBD,Raw
DQ,Raquel Redondo Edo,69,F,JUN,,2001,PSVIC,68.7,-120,-125,-130,,52.5,57.5,-60,57.5,122.5,130,135,135,,SBD,Raw
1,Claudia Zamora Ferrus,76,F,JUN,,1999,AFA,75.26,145,155,160,160,85,87.5,90,90,160,170,180,180,430,SBD,Raw
2,Paula Simo Estevez,76,F,JUN,,2000,FGUAN,73.6,142.5,150,155,155,-65,65,67.5,67.5,185,195,202.5,202.5,425,SBD,Raw
3,Claudia Pena Alvarez,76,F,JUN,,1999,PBAR,76,137.5,150,155,155,67.5,75,80,80,155,170,180,180,415,SBD,Raw
4,Martina Lanza Alzamora,76,F,JUN,,2003,PRAET,75.54,135,142.5,150,150,82.5,87.5,90,90,162.5,-172.5,-180,162.5,402.5,SBD,Raw
5,Sofía Valera Alberni,76,F,JUN,,1999,IRONT,75.26,142.5,-150,152.5,152.5,75,-77.5,-77.5,75,155,167.5,-172.5,167.5,395,SBD,Raw
6,Maria Gutierrez Pelaez,76,F,JUN,,2001,RVSTR,74.32,127.5,135,140,140,67.5,72.5,77.5,77.5,130,140,147.5,147.5,365,SBD,Raw
7,Blanca Garrido Romero,76,F,JUN,,1999,AFA,70.02,105,107.5,115,115,85,90,92.5,92.5,135,145,155,155,362.5,SBD,Raw
8,Claudia Hernandez Guerreiro,76,F,JUN,,2003,VALKY,73.9,110,117.5,127.5,127.5,67.5,72.5,75,75,137.5,145,150,150,352.5,SBD,Raw
9,Sandra Ares Patiño,76,F,JUN,,2001,FENIX,74.34,120,125,-135,125,80,85,-90,85,132.5,140,-145,140,350,SBD,Raw
10,Ángela Peinado Quesada,76,F,JUN,,2001,PEXTR,72.82,112.5,115,120,120,72.5,-75,-77.5,72.5,140,145,150,150,342.5,SBD,Raw
11,Andrea Bernabé Pérez,76,F,JUN,,2002,BEGO,75.62,120,122.5,125,125,-50,52.5,-55,52.5,135,-145,-145,135,312.5,SBD,Raw
1,Carlota Jamain Azorin,84,F,JUN,,1999,EINTE,82.12,105,112.5,117.5,117.5,62.5,65,70,70,140,150,155,155,342.5,SBD,Raw
1,Alejandro Oroso Lopez,59,M,SBJ,,2004,FENIX,57.18,122.5,135,145,145,-75,-82.5,82.5,82.5,167.5,180,-190,180,407.5,SBD,Raw
1,Cristian Verdugo Beltran,66,M,SBJ,,2005,ELITP,65.96,170,180,,180,-116,116,120,120,200,225,-235,225,525,SBD,Raw
2,Jorge Muñoz Exposito,66,M,SBJ,,2004,FNAZ,63.82,-150,150,160,160,95,100,-105,100,190,205,215,215,475,SBD,Raw
3,David Gonzalez Bono,66,M,SBJ,,2004,FIA,65.24,105,117.5,-125,117.5,105,-112.5,-116.5,105,160,172.5,-180,172.5,395,SBD,Raw
4,Daniel Cana Gomez,66,M,SBJ,,2005,SOYPW,59.7,120,127.5,135,135,65,70,72.5,72.5,145,155,165,165,372.5,SBD,Raw
1,Jhoan Sebastian Perez Ramirez,74,M,SBJ,,2004,BRSMAD,72.88,-185,185,-195,185,110,115,-117.5,115,210,215,217.5,217.5,517.5,SBD,Raw
2,Miguel Angel Ruiz Miranda,74,M,SBJ,,2005,ANDAL,71.52,-160,170,177.5,177.5,117.5,-122.5,-122.5,117.5,200,210,220,220,515,SBD,Raw
3,Enrique Cordoba Lechon,74,M,SBJ,,2004,SPARTA,71.88,165,172.5,182.5,182.5,117.5,125,132.5,132.5,-180,-192.5,200,200,515,SBD,Raw
4,Nicolas Miranda Sanchez-Biezma,74,M,SBJ,,2004,PNAVAR,72.34,177.5,185,-192.5,185,107.5,115,-120,115,195,207.5,-217.5,207.5,507.5,SBD,Raw
5,Marcel Boldú Fernández,74,M,SBJ,,2004,MOON,72.46,160,170,175,175,95,-100,-100,95,195,207.5,215,215,485,SBD,Raw
6,Julen Fajardo Solana,74,M,SBJ,,2005,GOIER,71.62,162.5,172.5,182.5,182.5,107.5,-110,110,110,190,-205,-205,190,482.5,SBD,Raw
7,David Macon Casares,74,M,SBJ,,2004,VALKY,72.22,147.5,157.5,-167.5,157.5,90,95,-100,95,192.5,205,215,215,467.5,SBD,Raw
8,Marcos Blanco Carames,74,M,SBJ,,2006,GALI,73.36,152.5,-157.5,157.5,157.5,80,-85,85,85,185,-195,195,195,437.5,SBD,Raw
9,Daniel De La Cruz Giron,74,M,SBJ,,2005,SOYPW,70.44,140,150,160,160,-80,85,-90,85,160,172.5,185,185,430,SBD,Raw
10,Dario Lopez Zamora,74,M,SBJ,,2007,DNIXAR,67.7,140,155,167.5,167.5,70,85,-100,85,155,170,-180,170,422.5,SBD,Raw
DQ,Antonio Jose Gonzalez Rodriguez,74,M,SBJ,,2004,GALI,72.18,197.5,-202.5,-202.5,197.5,-137.5,-137.5,-137.5,,210,-225,-225,210,,SBD,Raw
1,Javier Gonzalez Ruiz,83,M,SBJ,,2005,CANSTR,81.84,213.5,228,233,233,122.5,127.5,130,130,217.5,232.5,237.5,237.5,600.5,SBD,Raw
2,Daniel Pelecha Martinez,83,M,SBJ,,2004,FIA,81.42,-215,220,227.5,227.5,110,115,-120,115,225,232.5,242.5,242.5,585,SBD,Raw
3,Daniel Brik,83,M,SBJ,,2004,IRONS,81.8,170,182.5,192.5,192.5,135,-140,140,140,205,225,240,240,572.5,SBD,Raw
4,Diego Rubio Carlos,83,M,SBJ,,2004,BRSMAD,81.68,202.5,215,220,220,-115,120,125,125,225,-237.5,-245,225,570,SBD,Raw
5,Javier Rodríguez Marquez,83,M,SBJ,,2004,ERALLO,81.8,190,200,210,210,120,125,130,130,220,230,-240,230,570,SBD,Raw
6,Mario Sanchez Guillen,83,M,SBJ,,2004,SPARTA,82.94,210,-225,-225,210,115,122.5,127.5,127.5,205,220,230,230,567.5,SBD,Raw
7,Pere Rios Caparros,83,M,SBJ,,2004,RVSTR,79.2,210,217.5,-222.5,217.5,105,112.5,115,115,220,-230,230,230,562.5,SBD,Raw
8,Brandon Hidalgo Carmona,83,M,SBJ,,2004,MOON,80.3,190,202.5,-212.5,202.5,125,-132.5,132.5,132.5,200,215,-225,215,550,SBD,Raw
9,Juan Lopez Prieta,83,M,SBJ,,2004,BRSMAD,81.56,210,220,-225,220,105,110,-112.5,110,205,217.5,-222.5,217.5,547.5,SBD,Raw
10,Jacobo Estevez Camacho,83,M,SBJ,,2004,GALI,82.26,-200,-200,200,200,105,110,-112.5,110,200,215,-225,215,525,SBD,Raw
11,Viktor Maderak Patryk,83,M,SBJ,,2004,DTP,81.56,170,172.5,185,185,110,115,117.5,117.5,-202.5,217.5,-232.5,217.5,520,SBD,Raw
12,Daniel Gil Ortiz,83,M,SBJ,,2006,CROM,80.48,175,185,192.5,192.5,85,92.5,95,95,205,215,-217.5,215,502.5,SBD,Raw
13,Gael Garcia Arias,83,M,SBJ,,2004,FENIX,81.72,-167.5,175,180,180,-112.5,115,117.5,117.5,195,-205,205,205,502.5,SBD,Raw
14,Alejandro Canel Rejano,83,M,SBJ,,2004,CROM,81.86,175,-187.5,190,190,97.5,102.5,-105,102.5,185,200,-217.5,200,492.5,SBD,Raw
15,Sergio Raul Ruiz Solier,83,M,SBJ,,2005,ENRGY,77.2,185,-200,-200,185,90,105,-107.5,105,-190,190,-210,190,480,SBD,Raw
16,Mario Beltran Heredia,83,M,SBJ,,2006,INDAR,80.3,175,-187.5,187.5,187.5,87.5,92.5,-95,92.5,180,-190,192.5,192.5,472.5,SBD,Raw
1,Borja Moreno Gómez,93,M,SBJ,,2004,FVLFR,90.62,215,227.5,240,240,130,145,152.5,152.5,225,240,255,255,647.5,SBD,Raw
2,Dylan-Jhon Hambley Diaz,93,M,SBJ,,2004,PMAD,91.56,210,220,230,230,115,120,122.5,122.5,245,255,262.5,262.5,615,SBD,Raw
3,Jose Abel Morales Rosello,93,M,SBJ,,2004,DTP,92.32,217.5,227.5,-232.5,227.5,125,-130,130,130,222.5,240,-252.5,240,597.5,SBD,Raw
4,Edu Palazon Nadal,93,M,SBJ,,2004,FNAZ,85,180,190,197.5,197.5,110,115,120,120,210,222.5,232.5,232.5,550,SBD,Raw
5,Domenico Throne Barrantes,93,M,SBJ,,2004,ARBA,92.12,170,-182.5,-182.5,170,107.5,110,-115,110,215,230,240,240,520,SBD,Raw
6,Francisco Jesus Castro Jimenez,93,M,SBJ,,2005,PJAEN,90.5,-162.5,-167.5,167.5,167.5,90,95,-100,95,192.5,207.5,220,220,482.5,SBD,Raw
1,Pedro Joel Aragoneses Guerrero,105,M,SBJ,,2006,FIA,104.5,210,225,240,240,100,112.5,-122.5,112.5,250,270,-290,270,622.5,SBD,Raw
2,Pablo Gomez Dominguez,105,M,SBJ,,2006,BRSMAD,95.76,200,215,-230,215,130,135,-137.5,135,200,-215,217.5,217.5,567.5,SBD,Raw
3,Marcos Rafael Millán Jiménez,105,M,SBJ,,2005,SPARTA,101.86,190,200,220,220,95,102.5,-110,102.5,220,235,-245,235,557.5,SBD,Raw
1,Carlos Merchante Rubio,120,M,SBJ,,2004,EINTE,105.4,220,230,237.5,237.5,135,-140,-140,135,250,-262.5,-262.5,250,622.5,SBD,Raw
1,Borja Nanclares Simón,66,M,JUN,,1999,FGRAN,65.08,185,192.5,-200,192.5,115,117.5,-120,117.5,225,232.5,-240,232.5,542.5,SBD,Raw
2,Francisco Javier Santos Lopez,66,M,JUN,,1999,PSALAM,64.9,170,180,185,185,110,115,120,120,220,230,-245,230,535,SBD,Raw
3,Hugo Sánchez Ayuso,66,M,JUN,,2001,BASIC,64.66,177.5,185,190,190,107.5,110,112.5,112.5,212.5,222.5,230,230,532.5,SBD,Raw
4,Daniel Gomez Gomez,66,M,JUN,,2001,FGRAN,65.7,165,172.5,180,180,112.5,117.5,122.5,122.5,205,212.5,220,220,522.5,SBD,Raw
5,Juan Muñoz Exposito,66,M,JUN,,1999,ALMBAR,64.9,180,187.5,-192.5,187.5,102.5,105,-107.5,105,215,225,-235,225,517.5,SBD,Raw
6,Albert García Molas,66,M,JUN,,2000,BRSMAD,65.06,160,170,177.5,177.5,105,110,115,115,170,180,190,190,482.5,SBD,Raw
7,David Ruiz Pérez,66,M,JUN,,1999,AGSTR,63.92,165,-175,175,175,102.5,-107.5,-107.5,102.5,190,202.5,-210,202.5,480,SBD,Raw
8,Adrian Alvarez Sanchez,66,M,JUN,,2000,ASTUR,64.06,140,-150,150,150,100,110,115,115,172.5,182.5,190,190,455,SBD,Raw
9,Julio Cacicedo Rivero,66,M,JUN,,1999,ETRAIN,65.5,142.5,150,155,155,95,-100,100,100,175,-187.5,195,195,450,SBD,Raw
10,Roger Manuel Gómez Morenilla,66,M,JUN,,1999,PALMA,65.56,137.5,145,150,150,97.5,-102.5,102.5,102.5,170,180,-187.5,180,432.5,SBD,Raw
1,Alberto Herraiz Francés,74,M,JUN,,2000,BRSMAD,71.76,237.5,250.5,255.5,255.5,155,163,-168.5,163,260,270.5,-283,270.5,689,SBD,Raw
2,Marcos Souto Romero,74,M,JUN,,2003,SPCFIC,73.78,235,-246.5,253,253,127.5,132.5,-137.5,132.5,255,-267.5,-271,255,640.5,SBD,Raw
3,Mario Mendoza Velarde,74,M,JUN,,2000,PSVLL,73.26,187.5,200,207.5,207.5,132.5,137.5,-142.5,137.5,240,-250,257.5,257.5,602.5,SBD,Raw
4,Miguel Fernandez Morillo,74,M,JUN,,2001,VALKY,73.24,190,202.5,210,210,112.5,120,125,125,215,-230,230,230,565,SBD,Raw
5,Victor Martin Arroyo,74,M,JUN,,2002,EINTE,73.46,185,195,-200,195,120,125,-127.5,125,220,235,240,240,560,SBD,Raw
6,Juan Luís Aliño Valls,74,M,JUN,,1999,AFA,73.28,175,185,-190,185,125,130,132.5,132.5,215,227.5,235,235,552.5,SBD,Raw
7,Alex Montero Calasanz,74,M,JUN,,2001,PBAR,72.62,187.5,200,-210,200,125,127.5,-130,127.5,205,217.5,-227.5,217.5,545,SBD,Raw
8,Rodrigo Barragan Figuera,74,M,JUN,,2000,PSALAM,73.02,180,187.5,-192.5,187.5,115,120,125,125,220,230,-237.5,230,542.5,SBD,Raw
9,Sebastian Bedoya Suaza,74,M,JUN,,2002,FENIX,73.18,190,207.5,215,215,117.5,125,-127.5,125,-187.5,190,-205,190,530,SBD,Raw
10,Javier Sainz Franco De Castro,74,M,JUN,,2000,ETRAIN,73.46,165,177.5,185,185,107.5,115,120,120,202.5,215,225,225,530,SBD,Raw
11,Gerard Sanz Franco,74,M,JUN,,2000,PRAET,72.46,160,170,-175,170,127.5,-132.5,132.5,132.5,200,215,225,225,527.5,SBD,Raw
12,Alfonso Gallardo Rodriguez,74,M,JUN,,2001,PSVLL,73,177.5,-185,185,185,110,117.5,-125,117.5,200,212.5,222.5,222.5,525,SBD,Raw
13,Mikel Arango Rocha,74,M,JUN,,2003,PNAVAR,73.28,185,192.5,-197.5,192.5,110,115,117.5,117.5,200,212.5,-220,212.5,522.5,SBD,Raw
14,Marcos Martín De Paredes,74,M,JUN,,1999,BRSMAD,73.4,180,190,195,195,100,-105,-107.5,100,207.5,217.5,225,225,520,SBD,Raw
15,Nabil Mehdi Menai,74,M,JUN,,2001,VAKNER,70.9,162.5,170,175,175,100,-105,105,105,215,225,230,230,510,SBD,Raw
16,Luis Eduardo Sarango Chuqirima,74,M,JUN,,1999,FNORT,72.66,-152.5,165,172.5,172.5,110,120,-125,120,-187.5,187.5,212.5,212.5,505,SBD,Raw
17,Carlos Botella Perol,74,M,JUN,,2002,BEGO,72.68,157.5,167.5,172.5,172.5,97.5,100,102.5,102.5,210,225,230,230,505,SBD,Raw
18,Pol Martinez Ramos,74,M,JUN,,2001,PBAR,73.38,180,185,-195,185,77.5,82.5,85,85,-207.5,222.5,235,235,505,SBD,Raw
19,Anil Nanwani Vazquez,74,M,JUN,,2000,PRAET,72.24,165,175,-182.5,175,107.5,112.5,-115,112.5,200,210,212.5,212.5,500,SBD,Raw
20,Jorge Rodriguez Vila,74,M,JUN,,2002,FENIX,72.34,150,160,170,170,117.5,122.5,-130,122.5,185,-200,207.5,207.5,500,SBD,Raw
21,Sergio Moreno Calastra,74,M,JUN,,1999,BRSMAD,72.84,145,157.5,162.5,162.5,127.5,132.5,-137.5,132.5,190,205,-210,205,500,SBD,Raw
22,Gonzalo Sobrino Sobrino,74,M,JUN,,1999,IRONS,72.82,175,185,-190,185,82.5,87.5,90,90,205,220,-230,220,495,SBD,Raw
23,Manuel Estreder Mora,74,M,JUN,,2000,IRONT,73.06,150,160,170,170,90,97.5,105,105,190,205,220,220,495,SBD,Raw
24,Joel Aja Martínez,74,M,JUN,,2002,PNAVAR,72.5,162.5,-172.5,172.5,172.5,100,105,-107.5,105,207.5,215,-225,215,492.5,SBD,Raw
25,Adrián Magaña Marin,74,M,JUN,,1999,INDAR,72.58,157.5,167.5,175,175,105,110,-115,110,200,207.5,,207.5,492.5,SBD,Raw
26,Daniel Alejandro Negrín Pérez,74,M,JUN,,2003,ERALLO,72.9,160,167.5,172.5,172.5,100,-107.5,107.5,107.5,200,210,-220,210,490,SBD,Raw
27,Marcos Alba,74,M,JUN,,2003,EINTE,71.2,160,172.5,180,180,100,105,-110,105,180,192.5,-200,192.5,477.5,SBD,Raw
28,Asier Menaoum Baigorri,74,M,JUN,,1999,PATIO,72.78,160,-170,-175,160,107.5,112.5,115,115,195,-210,-210,195,470,SBD,Raw
DQ,Daniel Puente Rodríguez,74,M,JUN,,2000,ERALLO,72.8,207.5,217.5,-225,217.5,115,120,125,125,-230,-235,,,,SBD,Raw
1,Sergi Sola Iglesias,83,M,JUN,,2000,PRAET,82.74,-242.5,-250,250,250,145,152.5,157.5,157.5,270,-290,-290,270,677.5,SBD,Raw
2,Raúl Aparicio Escudero,83,M,JUN,,1999,ARETE,80.62,215,235,250,250,142.5,150,157.5,157.5,-230,240,252.5,252.5,660,SBD,Raw
3,Ruben Orbea Espejo,83,M,JUN,,2000,FEDCAT,81.44,212.5,225,235,235,137.5,142.5,145,145,255,265,270,270,650,SBD,Raw
4,Miguel Angel Pascual Cabrera,83,M,JUN,,2000,RVSTR,82.44,245,255,,255,150,155,-160,155,225,240,-252.5,240,650,SBD,Raw
5,Gerard Moya Freixedas,83,M,JUN,,2002,FEDCAT,78.9,210,222.5,235,235,132.5,135,-137.5,135,245,260,272.5,272.5,642.5,SBD,Raw
6,Jaime Escat Ramos,83,M,JUN,,2003,ERALLO,81.52,220,232.5,250,250,127.5,135,-140,135,230,250,-270,250,635,SBD,Raw
7,Mikel Narvalaz Lamsfus,83,M,JUN,,1999,MOON,81.52,210,217.5,-222.5,217.5,125,132.5,-135,132.5,255,265,275,275,625,SBD,Raw
8,Pedro Cano García,83,M,JUN,,2001,NPCA,82.4,205,212.5,-222.5,212.5,130,-135,135,135,270,-285,-285,270,617.5,SBD,Raw
9,Mikel Eskibel Lapresa,83,M,JUN,,2000,PNAVAR,81.6,-210,215,222.5,222.5,-140,140,145,145,-235,-240,240,240,607.5,SBD,Raw
10,Pablo Olivencia Moreno,83,M,JUN,,1999,PSVLL,80.24,190,200,210,210,-152.5,157.5,162.5,162.5,230,-240,-240,230,602.5,SBD,Raw
11,Andrés Aldea Murillo,83,M,JUN,,1999,LIFTST,81.62,200,210,217.5,217.5,140,142.5,-145,142.5,232.5,240,-245,240,600,SBD,Raw
12,Aziz Diaw,83,M,JUN,,1999,ASTUR,78.28,-192.5,197.5,210,210,115,122.5,-130,122.5,-240,250,265,265,597.5,SBD,Raw
13,Kevin Trejo Gonzalez,83,M,JUN,,2001,VALKY,79.94,200,-212.5,215,215,130,135,137.5,137.5,220,235,-247.5,235,587.5,SBD,Raw
14,Jose Carretero Jimenez,83,M,JUN,,1999,FNAZ,78.94,200,210,217.5,217.5,105,112.5,-117.5,112.5,240,255,-267.5,255,585,SBD,Raw
15,Ramón Argüelles Balas,83,M,JUN,,2000,CROM,81.12,205,212.5,220,220,-117.5,122.5,132.5,132.5,-220,230,-245,230,582.5,SBD,Raw
16,Xavier Moreno Guirao,83,M,JUN,,2001,MOON,81.86,205,215,225,225,107.5,115,120,120,210,225,235,235,580,SBD,Raw
17,Álvaro Fernández Maestro,83,M,JUN,,1999,VALKY,82.32,175,185,195,195,117.5,122.5,127.5,127.5,227.5,242.5,255,255,577.5,SBD,Raw
18,Mauricio Patiño Quintero,83,M,JUN,,2000,PSVLL,78.74,180,195,207.5,207.5,125,130,-132.5,130,225,232.5,-240,232.5,570,SBD,Raw
19,Adrian de Jesus Calvo Muñoz,83,M,JUN,,2000,LIFTAM,80.58,-185,200,212.5,212.5,112.5,117.5,122.5,122.5,-220,235,-250,235,570,SBD,Raw
20,Sergio Triana Gomez,83,M,JUN,,2000,ARP,80.86,185,195,205,205,132.5,140,-147.5,140,-205,205,225,225,570,SBD,Raw
21,Diego Romero Pérez,83,M,JUN,,2000,FTOLE,81.3,185,190,195,195,125,130,-132.5,130,245,-260,-260,245,570,SBD,Raw
22,Adrián Segura Plaza,83,M,JUN,,2001,ARP,82.16,177.5,187.5,195,195,125,130,132.5,132.5,210,-225,225,225,552.5,SBD,Raw
23,Rubén García De La Hoz,83,M,JUN,,1999,ASTUR,82.18,190,200,-205,200,120,-125,-125,120,220,232.5,-240,232.5,552.5,SBD,Raw
24,Nogal Martin Del,83,M,JUN,,1999,RSLIF,81.46,-177.5,182.5,190,190,110,-117.5,-117.5,110,235,242.5,-250,242.5,542.5,SBD,Raw
25,Markel Perez Cerrato,83,M,JUN,,2003,GOIER,82.62,175,185,190,190,120,-125,125,125,-200,200,222.5,222.5,537.5,SBD,Raw
26,Diego Caballero García,83,M,JUN,,2002,RSLIF,78.08,210,-220,220,220,115,-125,-125,115,200,,,200,535,SBD,Raw
27,Unai Llamusi Bonilla,83,M,JUN,,2001,MCEUTI,79.7,180,187.5,-190,187.5,135,140,-145,140,195,205,-212.5,205,532.5,SBD,Raw
28,Diego Alberto Villegas Cornejo,83,M,JUN,,1999,ALMBAR,78.96,165,175,185,185,120,130,137.5,137.5,187.5,205,-215,205,527.5,SBD,Raw
29,Javier Ruiz Cazaña,83,M,JUN,,2000,IRONT,81.82,-175,185,-195,185,105,110,,110,190,205,-222.5,205,500,SBD,Raw
30,Gerard Extremera Mazon,83,M,JUN,,2001,FEDCAT,82.5,-182.5,182.5,-190,182.5,122.5,132.5,-140,132.5,-182.5,182.5,-195,182.5,497.5,SBD,Raw
31,Antonio Jesus Moyano Pulido,83,M,JUN,,1999,PANDJ,82.62,-175,175,182.5,182.5,107.5,110,112.5,112.5,180,192.5,202.5,202.5,497.5,SBD,Raw
DQ,David Pereira Rodriguez,83,M,JUN,,2002,GALI,81.96,-180,180,-187.5,180,107.5,-112.5,112.5,112.5,-225,-225,-230,,,SBD,Raw
DQ,Antonio Jesus Dovao Miranda,83,M,JUN,,2002,PANDJ,82.16,187.5,195,200,200,-105,-107.5,-107.5,,220,-232.5,232.5,232.5,,SBD,Raw
1,Alfredo Manuel Maceiras Castro,93,M,JUN,,1999,FENIX,92.98,262.5,272.5,280.5,280.5,155,160,162.5,162.5,290,306,-321.5,306,749,SBD,Raw
2,Martin Miguel Amoztegui Jimenez,93,M,JUN,,1999,PNAVAR,89.88,247.5,260,272.5,272.5,142.5,-147.5,-147.5,142.5,290,305.5,317,317,732,SBD,Raw
3,Marcos Carretero Serrano,93,M,JUN,,2001,ARP,90.4,255,265,-270,265,-152.5,155,-170,155,270,282.5,290,290,710,SBD,Raw
4,Beñat Urretabizkaia Saldaña,93,M,JUN,,1999,FGRAN,91.72,235,250,-255,250,165,171,-172,171,-272.5,280,-290,280,701,SBD,Raw
5,Miguel Garcia Rodriguez,93,M,JUN,,1999,IRONT,90.98,250,-260,260,260,160,165,-171.5,165,250,265,-280,265,690,SBD,Raw
6,Iago Aramendia San Martin,93,M,JUN,,1999,GOIER,91.56,220,237.5,-242.5,237.5,150,157.5,-162.5,157.5,260,275,290,290,685,SBD,Raw
7,Mario Montaño Camacho,93,M,JUN,,2000,PSVLL,90.22,230,245,-255,245,157.5,162.5,,162.5,250,265,-272.5,265,672.5,SBD,Raw
8,Pau Bel Roig,93,M,JUN,,2002,PBAR,88.38,205,215,-225,215,142.5,150,155,155,-285,285,300,300,670,SBD,Raw
9,Nicolás Gómez Ramírez,93,M,JUN,,2001,IRONT,91.9,-245,-245,245,245,135,142.5,150,150,250,275,-300,275,670,SBD,Raw
10,Jose Perez Nova,93,M,JUN,,2002,PLCO,92.38,220,230,237.5,237.5,140,145,147.5,147.5,265,285,-295,285,670,SBD,Raw
11,Paz Mario Gracia Firma,93,M,JUN,,2000,SPCFIC,91.22,200,212.5,217.5,217.5,140,147.5,150,150,272.5,287.5,300,300,667.5,SBD,Raw
12,Jordi Corbella Edo,93,M,JUN,,2002,PBAR,90.66,230,247.5,255,255,142.5,-152.5,-157.5,142.5,250,265,-275,265,662.5,SBD,Raw
13,Lenta Darius,93,M,JUN,,2001,SPCFIC,92.7,220,230,-240,230,142.5,150,-155,150,257.5,270,-280,270,650,SBD,Raw
14,Adria Ocaña Busquets,93,M,JUN,,2001,FEDCAT,91.02,215,227.5,235,235,-117.5,132.5,142.5,142.5,240,-257.5,265,265,642.5,SBD,Raw
15,Santiago Naranjo Romero,93,M,JUN,,2001,FTOLE,92.84,-222.5,227.5,240,240,157.5,165,170,170,230,-245,-250,230,640,SBD,Raw
16,Qiu Zuhang,93,M,JUN,,2001,CROM,92.3,235,247.5,252.5,252.5,120,125,-130,125,-260,260,-270,260,637.5,SBD,Raw
17,Íñigo Eleta García De Vicuña,93,M,JUN,,1999,PNAVAR,91.9,215,-230,235,235,132.5,135,140,140,240,260,-280,260,635,SBD,Raw
18,Pablo Alvarez Cuadrillero,93,M,JUN,,2001,VALKY,89.36,210,225,-235,225,140,147.5,-150,147.5,245,257.5,-270,257.5,630,SBD,Raw
19,Eduard Nevado Espinar,93,M,JUN,,2000,MOON,91.86,210,220,230,230,155,-165,165,165,215,230,-242.5,230,625,SBD,Raw
20,Pablo González Alonso,93,M,JUN,,2000,BURGOS,92.46,202.5,210,217.5,217.5,137.5,142.5,-145,142.5,237.5,247.5,255,255,615,SBD,Raw
21,Guillermo Sanchez Becerra,93,M,JUN,,1999,NPCA,92.24,220,230,-240,230,135,-145,145,145,220,235,-250,235,610,SBD,Raw
22,José Angel Botana Fernandez,93,M,JUN,,2000,ASTUR,92.48,205,215,222.5,222.5,140,145,-150,145,240,-247.5,-250,240,607.5,SBD,Raw
23,Xabier Vazquez Garcia,93,M,JUN,,2000,ETRAIN,90.44,195,210,217.5,217.5,115,120,125,125,-235,235,255,255,597.5,SBD,Raw
24,Carlos Velasco Bersabé,93,M,JUN,,2003,PANDJ,92.12,205,212.5,222.5,222.5,117.5,122.5,130,130,-230,242.5,-257.5,242.5,595,SBD,Raw
25,Rubén Díaz Ramos,93,M,JUN,,2001,ENRGZN,90.76,200,-215,-220,200,142.5,147.5,150,150,210,225,240,240,590,SBD,Raw
26,Samuel Roncada Grimaldos,93,M,JUN,,1999,PMAD,90.96,-215,215,225,225,132.5,137.5,140,140,217.5,-230,-230,217.5,582.5,SBD,Raw
27,Dylan Tallana Rodríguez,93,M,JUN,,2000,CROM,91.44,195,207.5,215,215,130,140,-142.5,140,220,-232.5,-240,220,575,SBD,Raw
28,Diego Juanas Cubillo,93,M,JUN,,1999,CROM,88.78,175,190,200,200,-125,132.5,140,140,200,215,227.5,227.5,567.5,SBD,Raw
29,Ivan Perez Gonzalez,93,M,JUN,,1999,FNORT,89.98,205,217.5,222.5,222.5,117.5,122.5,-127.5,122.5,-215,222.5,-235,222.5,567.5,SBD,Raw
30,Fernando Guzman Palavecino,93,M,JUN,,2000,FNAZ,90.24,-192.5,192.5,200,200,115,-120,120,120,225,237.5,245,245,565,SBD,Raw
31,Alex Tubau Molina,93,M,JUN,,2001,PBAR,92.3,185,195,-202.5,195,105,110,115,115,220,235,245,245,555,SBD,Raw
32,Alberto Borrella Díaz,93,M,JUN,,2000,PEXTR,87.9,190,200,-205,200,140,-150,-150,140,-210,210,,210,550,SBD,Raw
33,Mateo Martinez Egea,93,M,JUN,,2003,ARETE,87.08,195,207.5,-215,207.5,-97.5,97.5,105,105,200,215,225,225,537.5,SBD,Raw
34,Jose Angel Puertas Quesada,93,M,JUN,,2001,MALPT,87.72,-170,170,-187.5,170,127.5,-135,135,135,210,225,-230,225,530,SBD,Raw
35,Metola Rodrigo Garcia De Marina,93,M,JUN,,1999,LIFTST,87.44,140,152.5,160,160,97.5,-105,107.5,107.5,165,180,197.5,197.5,465,SBD,Raw
DQ,Eneko Iglesias Uribelarrea,93,M,JUN,,2000,SOYPW,88.22,235,250,260,260,117.5,125,-130,125,-240,-245,-250,,,SBD,Raw
DQ,Javier Rubio Monreal,93,M,JUN,,1999,FIA,91.84,-225,-225,-225,,142.5,147.5,-152.5,147.5,240,-257.5,265,265,,SBD,Raw
DQ,Ivan Porres Perez,93,M,JUN,,2000,HANGAR,91.84,170,175,177.5,177.5,125,130,-135,130,,,,,,SBD,Raw
DQ,Endika Torralba Alonso,93,M,JUN,,1999,BURGOS,92.06,225,-232.5,242.5,242.5,125,-132.5,-132.5,125,-245,-260,-260,,,SBD,Raw
1,Andrés Castellón Del Campo,105,M,JUN,,2002,ATMA,103.42,-270,280,290,290,140,145,147.5,147.5,-320,-320,320,320,757.5,SBD,Raw
2,Carlos Romero Donat,105,M,JUN,,2001,AFA,104.42,255,270,280,280,155,162.5,-167.5,162.5,270,285,292.5,292.5,735,SBD,Raw
3,Oscar Mendieta Ibanez,105,M,JUN,,2003,RVSTR,102.22,252.5,270,282.5,282.5,142.5,150,155,155,280,292.5,-297.5,292.5,730,SBD,Raw
4,Alejandro Arocas Fernandez,105,M,JUN,,2002,FIA,101.68,227.5,240,247.5,247.5,132.5,140,142.5,142.5,-240,250,270,270,660,SBD,Raw
5,Ignacio Aguado Sanz,105,M,JUN,,2000,AGSTR,102.56,-242.5,242.5,247.5,247.5,135,-137.5,,135,260,275,-280,275,657.5,SBD,Raw
6,Guillermo Prieto Luengo,105,M,JUN,,2001,RSLIF,103.34,210,215,220,220,117.5,122.5,127.5,127.5,265,280,290,290,637.5,SBD,Raw
7,Sergio Benito Castro,105,M,JUN,,1999,IRONT,98.2,-225,-235,235,235,-115,120,125,125,245,260,270,270,630,SBD,Raw
8,Jorge De Andrés Blanes,105,M,JUN,,2000,DTP,98.72,220,235,-247.5,235,115,-120,120,120,-260,260,275,275,630,SBD,Raw
9,Daniel Fernández Rodríguez,105,M,JUN,,2000,ERALLO,100.12,195,205,212.5,212.5,140,147.5,155,155,260,-275,-285,260,627.5,SBD,Raw
10,Roger Climent Mora,105,M,JUN,,2000,MOON,102.76,-235,235,250,250,127.5,-135,-135,127.5,235,245,-255,245,622.5,SBD,Raw
11,Mariano Hernando Marcos,105,M,JUN,,2000,FTOLE,101.86,190,202.5,212.5,212.5,-135,135,142.5,142.5,240,262.5,-272.5,262.5,617.5,SBD,Raw
12,Martin Seijas Gonzalez,105,M,JUN,,2001,FENIX,102.52,210,220,230,230,112.5,-117.5,,112.5,242.5,257.5,270,270,612.5,SBD,Raw
13,Alvaro Martinez Morales,105,M,JUN,,2000,PANDJ,102.54,205,217.5,-222.5,217.5,147.5,-152.5,-152.5,147.5,230,245,-255,245,610,SBD,Raw
14,Miguel Aleixandre Ripoll,105,M,JUN,,2002,BRSMAD,102.86,185,200,215,215,110,112.5,-115,112.5,260,275,-285,275,602.5,SBD,Raw
15,Noah Pérez Rodríguez,105,M,JUN,,2000,VALKY,104.72,200,-212.5,220,220,135,,,135,240,-255,,240,595,SBD,Raw
16,Sergio Perez Sánchez,105,M,JUN,,1999,BRSTOD,98.5,195,207.5,212.5,212.5,115,120,-125,120,205,220,232.5,232.5,565,SBD,Raw
17,Mario Gutiérrez García,105,M,JUN,,2002,EXIT28,95.4,195,210,-217.5,210,100,-105,-105,100,230,-245,250,250,560,SBD,Raw
1,Aday Ventura Rosa,120,M,JUN,,2000,PSVLL,114.8,255,270,280,280,172.5,180,183.5,183.5,260,272.5,280,280,743.5,SBD,Raw
2,Alejandro González Laserna,120,M,JUN,,2002,BRSMAD,112.9,285,296.5,301,301,132.5,137.5,142.5,142.5,260,-275,275,275,718.5,SBD,Raw
3,Sergio Carratalá Escudé,120,M,JUN,,2003,AFA,112.96,245,262.5,275,275,170,177.5,-182.5,177.5,245,-260,-260,245,697.5,SBD,Raw
4,Fernan Sanchez Barreiro,120,M,JUN,,1999,BASIC,115.34,230,245,-250,245,157.5,165,-170,165,260,-275,-275,260,670,SBD,Raw
5,Rubén Peña Baena,120,M,JUN,,2003,MADP,117.5,240,255,-265,255,-162.5,162.5,-170,162.5,230,252.5,-265,252.5,670,SBD,Raw
6,Juan Martinez Enguidanos,120,M,JUN,,2000,FGUAN,105.6,232.5,245,252.5,252.5,140,145,-150,145,250,270,-300,270,667.5,SBD,Raw
7,J. Emilio Barra Lopez,120,M,JUN,,2003,PTRSA,116.9,215,230,240,240,140,150,-165,150,-240,240,275,275,665,SBD,Raw
8,Alejandro Candal Sanchez,120,M,JUN,,2001,IRONS,116.56,220,235,250,250,122.5,130,-132.5,130,240,265,-290,265,645,SBD,Raw
9,Nicolas Marcilla Pazos,120,M,JUN,,2002,VALKY,117.9,205,215,220,220,132.5,142.5,-147.5,142.5,220,235,-242.5,235,597.5,SBD,Raw
DQ,Robert Brenner Fernandez,120,M,JUN,,2001,PANDJ,109.7,-215,-225,225,225,130,135,140,140,-250,-262.5,-272.5,,,SBD,Raw